INDEX VERSION 1.130+/home/emidstest01/Desktop/KowshikUS/.metadata/.plugins/org.eclipse.jdt.core
3539432263.index
2253745042.index
1308818619.index
3066711521.index
502732891.index
1089239932.index
2744878784.index
3576158950.index
2359322674.index
1628687906.index
813341167.index
3485262699.index
821608291.index
925982370.index
3512161136.index
3883508318.index
3530540584.index
